%YAML 1.1
%TAG !u! tag:unity3d.com,2011:
--- !u!162 &1
EditorUserSettings:
  m_ObjectHideFlags: 0
  serializedVersion: 4
  m_ConfigSettings:
    RecentlyUsedScenePath-0:
      value: 22424703114646680e0b0227036c6b1f01121419222936172c241823eee12d76f7e93ffdfe
      flags: 0
    RecentlyUsedScenePath-1:
      value: 224247031146466b0c070236392d0c34593e160d2d25237f08311c3ef2ec312badb767a9c53b2c353a42dc39102b1171e704001fef
      flags: 0
    RecentlyUsedScenePath-2:
      value: 224247031146466b0c070236392d0c34593e160d2d25237f08311c3ef2ec312badb763a9a77a7f1f2c00ea721130082beb
      flags: 0
    RecentlyUsedScenePath-3:
      value: 224247031146460829230326152f102f2616082b226715272424103aece77408ede83aa9fd3531397631ec390a3b1270c11d0006fb02040c513ef2011dec1917148b0dcb13dc06
      flags: 0
    RecentlyUsedScenePath-4:
      value: 224247031146460829230326152f102f2616082b226715272424103aece77408ede83aa9fd3531397631ec390a3b1270de0f1f0efa5a3a0a010ff34004f1190708
      flags: 0
    RecentlyUsedScenePath-5:
      value: 224247031146460829230326152f102f2616082b226715272424103aece77408ede83aa9fd3531397631ec390a3b1270de0f1f0efa58441e1f07e917
      flags: 0
    RecentlyUsedScenePath-6:
      value: 224247031146460829230326152f102f2616082b226715272424103aece77408ede83aa9fd3531397631ec390a3b1270de0f1f0efa5f441e1f07e917
      flags: 0
    RecentlyUsedScenePath-7:
      value: 224247031146460829230326152f102f2616082b226715272424103aece77408ede83aa9fd3531397631ec390a3b1270de0f1f0efa5e441e1f07e917
      flags: 0
    RecentlyUsedScenePath-8:
      value: 224247031146460829230326152f102f2616082b226715272424103aece77408ede83aa9fd3531397631ec390a3b1270de0f1f0efa59441e1f07e917
      flags: 0
    RecentlyUsedScenePath-9:
      value: 224247031146460829230326152f102f2616082b226715272424103aece77408ede83aa9fd3531397631ec390a3b1270de0f1f0efa5a441e1f07e917
      flags: 0
    UnityEditor.ShaderGraph.Blackboard:
      value: 18135939215a0a5004000b0e15254b524c030a3f2964643d120d1230e9e93a3fd6e826abbd2e2d293c4ead313b08042de6030a0afa240c0d020be94c4ba75e435d8715fa32c70d15d11612dacc11fee5d3c5d1fe9ab1bf968e93e2ffcbc3e7e2f0b3ffe0e8b0be9af9f8afffff8e85dd8390e2949c8899daa7
      flags: 0
    UnityEditor.ShaderGraph.FloatingWindowsLayout2:
      value: 181344140043005e1a220d3b1f364b524c0c5a27130c293326201334cee5322ca0bd30e8eb293a707b0fd0180b3d0a36fc0d3d04e649500d1002ee0b5dbd1d2c27c00ad113cb1e10e41f1addc80993b98d9884a69ae6d8f0d1cda9e8fbfefaf9f9dea3fdb9ade882f0f7b0e1e380cafbf2c3adc18e9cd285a2908b82ec869c8395949c9483d68a8e97ddbd90bf
      flags: 0
    UnityEditor.ShaderGraph.InspectorWindow:
      value: 18135939215a0a5004000b0e15254b524c030a3f2964643d120d1230e9e93a3fd6e826abbd2e2d293c4ead313b08042de6030a0afa240c0d020be94c4ba75e435d8715fa32c70d15d11612dacc11fee5d3c5d1fe9ab1b4968e93e2ffcbc3e7e2f0b3ffe0e8b0be9af9ffaeffff8e85dd8390e3949c8899daa7
      flags: 0
    UnityEditor.ShaderGraph.ToggleSettings:
      value: 18135d1527590858060c032302276919051e1a26296a7c243f3c187fa0e92708f0e220e0e22d09352a0bed30017c5b2be01f0c47b40219221f1ded0b12eb1f0127cc0bcc18c41a5e911f1dc2de189da1d6d9d8e5cadbf5d7c8d6a4f7e6b2b4baa9dfaaf5aff6bedd
      flags: 0
    vcSharedLogLevel:
      value: 0d5e400f0650
      flags: 0
  m_VCAutomaticAdd: 1
  m_VCDebugCom: 0
  m_VCDebugCmd: 0
  m_VCDebugOut: 0
  m_SemanticMergeMode: 2
  m_VCShowFailedCheckout: 1
  m_VCOverwriteFailedCheckoutAssets: 1
  m_VCProjectOverlayIcons: 1
  m_VCHierarchyOverlayIcons: 1
  m_VCOtherOverlayIcons: 1
  m_VCAllowAsyncUpdate: 1
